{
  "username": "mlbmlb9",
   
    "password": "yellow52",
    "email":"abhishek.anand458@gmail.com",
    "title":"Dr.",
    "firstName":"abhishek",
    "lastName":"anand",
    "CountryName":"ALBANIA",
    "Institution":"OXFORD"
            
 
}